{
	"info": {
		"_postman_id": "324ecc19-0dea-40ec-868e-a40de88a4752",
		"name": "Politics In Review API Endpoints",
		"schema": "https://schema.getpostman.com/json/collection/v2.1.0/collection.json"
	},
	"item": [
		{
			"name": "Politicians List",
			"event": [
				{
					"listen": "test",
					"script": {
						"exec": [
							""
						],
						"type": "text/javascript"
					}
				}
			],
			"request": {
				"auth": {
					"type": "noauth"
				},
				"method": "GET",
				"header": [
					{
						"key": "",
						"value": "",
						"type": "text",
						"disabled": true
					}
				],
				"url": {
					"raw": "https://api.politicsin.review/politicians/?offset=<pageoffset>&limit=<pagesize>&sortby=[name|party|state]&sortorder=[highest|lowest]",
					"protocol": "https",
					"host": [
						"api",
						"politicsin",
						"review"
					],
					"path": [
						"politicians",
						""
					],
					"query": [
						{
							"key": "offset",
							"value": "<pageoffset>",
							"description": "The number of elements to skip within the total range of elements."
						},
						{
							"key": "limit",
							"value": "<pagesize>",
							"description": "The number of elements to return. "
						},
						{
							"key": "sortby",
							"value": "[name|party|state]",
							"description": "The attribute to sort the returned list by."
						},
						{
							"key": "sortorder",
							"value": "[highest|lowest]",
							"description": "Highest value first, or lowest value first. Strings are sorted alphabetically."
						}
					]
				}
			},
			"response": [
				{
					"name": "Politicians List Example",
					"originalRequest": {
						"method": "GET",
						"header": [],
						"url": {
							"raw": "https://api.politicsin.review/politicians/?offset=0&limit=50",
							"protocol": "https",
							"host": [
								"api",
								"politicsin",
								"review"
							],
							"path": [
								"politicians",
								""
							],
							"query": [
								{
									"key": "offset",
									"value": "0"
								},
								{
									"key": "limit",
									"value": "50"
								}
							]
						}
					},
					"_postman_previewlanguage": "Text",
					"header": null,
					"cookie": [],
					"body": null
				}
			]
		},
		{
			"name": "Politicians List Test",
			"event": [
				{
					"listen": "test",
					"script": {
						"exec": [
							"pm.test(\"Politician List Test\", function () {",
							"    pm.response.to.have.status(200);",
							"    pm.response.to.be.ok;",
							"    pm.response.to.be.json;",
							"});",
							"",
							"pm.test(\"Politician List JSON Test\", function () {",
							"    const responseJson = pm.response.json();",
							"    pm.expect(responseJson.limit).to.eql(10);",
							"    pm.expect(responseJson.offset).to.eql(0);",
							"    pm.expect(responseJson.results).to.have.lengthOf(10);",
							"});",
							"",
							"pm.test(\"Politician List Result Test\", function () {",
							"    const responseJson = pm.response.json().results[0];",
							"    pm.expect(responseJson.first_name).to.be.a('string');",
							"    pm.expect(responseJson.id).to.be.a('string');",
							"    pm.expect(responseJson.last_name).to.be.a('string');",
							"    pm.expect(responseJson.party).to.be.a('string');",
							"    pm.expect(responseJson.state).to.be.a('string');",
							"});"
						],
						"type": "text/javascript"
					}
				}
			],
			"request": {
				"auth": {
					"type": "noauth"
				},
				"method": "GET",
				"header": [
					{
						"key": "",
						"value": "",
						"type": "text",
						"disabled": true
					}
				],
				"url": {
					"raw": "https://api.politicsin.review/politicians/?offset=0&limit=10",
					"protocol": "https",
					"host": [
						"api",
						"politicsin",
						"review"
					],
					"path": [
						"politicians",
						""
					],
					"query": [
						{
							"key": "offset",
							"value": "0",
							"description": "The number of elements to skip within the total range of elements."
						},
						{
							"key": "limit",
							"value": "10",
							"description": "The number of elements to return. "
						}
					]
				}
			},
			"response": []
		},
		{
			"name": "Bills List",
			"request": {
				"method": "GET",
				"header": [],
				"url": {
					"raw": "https://api.politicsin.review/bills/?offset=<pageoffset>&limit=<pagesize>&sortby=[id|subject|sponsor]&sortorder=[highest|lowest]",
					"protocol": "https",
					"host": [
						"api",
						"politicsin",
						"review"
					],
					"path": [
						"bills",
						""
					],
					"query": [
						{
							"key": "offset",
							"value": "<pageoffset>",
							"description": "The number of elements to skip within the total range of elements."
						},
						{
							"key": "limit",
							"value": "<pagesize>",
							"description": "The number of elements to return. "
						},
						{
							"key": "sortby",
							"value": "[id|subject|sponsor]",
							"description": "The attribute to sort the returned list by."
						},
						{
							"key": "sortorder",
							"value": "[highest|lowest]",
							"description": "Highest value first, or lowest value first. Strings are sorted alphabetically."
						}
					]
				}
			},
			"response": [
				{
					"name": "Bills List Example",
					"originalRequest": {
						"method": "GET",
						"header": [],
						"url": {
							"raw": "https://api.politicsin.review/bills/?offset=0&pagesize=50",
							"protocol": "https",
							"host": [
								"api",
								"politicsin",
								"review"
							],
							"path": [
								"bills",
								""
							],
							"query": [
								{
									"key": "offset",
									"value": "0"
								},
								{
									"key": "pagesize",
									"value": "50"
								}
							]
						}
					},
					"_postman_previewlanguage": "Text",
					"header": null,
					"cookie": [],
					"body": null
				}
			]
		},
		{
			"name": "Bills List Test",
			"event": [
				{
					"listen": "test",
					"script": {
						"exec": [
							"pm.test(\"Bill List Test\", function () {",
							"    pm.response.to.have.status(200);",
							"    pm.response.to.be.ok;",
							"    pm.response.to.be.json;",
							"});",
							"",
							"pm.test(\"Bill List JSON Test\", function () {",
							"    const responseJson = pm.response.json();",
							"    pm.expect(responseJson.limit).to.eql(10);",
							"    pm.expect(responseJson.offset).to.eql(0);",
							"    pm.expect(responseJson.results).to.have.lengthOf(10);",
							"});",
							"",
							"pm.test(\"Bill List Result Test\", function () {",
							"    const responseJson = pm.response.json().results[0];",
							"    pm.expect(responseJson.bill_id).to.be.a('string');",
							"    pm.expect(responseJson.congressdotgov_url).to.be.a('string');",
							"    pm.expect(responseJson.sponsor_id).to.be.a('string');",
							"    pm.expect(responseJson.title).to.be.a('string');",
							"    pm.expect(responseJson.latest_major_action).to.be.a('string');",
							"});"
						],
						"type": "text/javascript"
					}
				}
			],
			"request": {
				"method": "GET",
				"header": [],
				"url": {
					"raw": "https://api.politicsin.review/bills/?offset=0&limit=10",
					"protocol": "https",
					"host": [
						"api",
						"politicsin",
						"review"
					],
					"path": [
						"bills",
						""
					],
					"query": [
						{
							"key": "offset",
							"value": "0",
							"description": "The number of elements to skip within the total range of elements."
						},
						{
							"key": "limit",
							"value": "10",
							"description": "The number of elements to return. "
						}
					]
				}
			},
			"response": []
		},
		{
			"name": "Organization List",
			"request": {
				"method": "GET",
				"header": [],
				"url": {
					"raw": "https://api.politicsin.review/organizations/?offset=<pageoffset>&limit=<pagesize>&sortby=[id|name|lobbying]&sortorder=[highest|lowest]",
					"protocol": "https",
					"host": [
						"api",
						"politicsin",
						"review"
					],
					"path": [
						"organizations",
						""
					],
					"query": [
						{
							"key": "offset",
							"value": "<pageoffset>",
							"description": "The number of elements to skip within the total range of elements."
						},
						{
							"key": "limit",
							"value": "<pagesize>",
							"description": "The number of elements to return. "
						},
						{
							"key": "sortby",
							"value": "[id|name|lobbying]",
							"description": "The attribute to sort the returned list by."
						},
						{
							"key": "sortorder",
							"value": "[highest|lowest]",
							"description": "Highest value first, or lowest value first. Strings are sorted alphabetically."
						}
					]
				}
			},
			"response": [
				{
					"name": "Organization List Example",
					"originalRequest": {
						"method": "GET",
						"header": [],
						"url": {
							"raw": "https://api.politicsin.review/organizations/?offset=0&limit=50",
							"protocol": "https",
							"host": [
								"api",
								"politicsin",
								"review"
							],
							"path": [
								"organizations",
								""
							],
							"query": [
								{
									"key": "offset",
									"value": "0"
								},
								{
									"key": "limit",
									"value": "50"
								}
							]
						}
					},
					"_postman_previewlanguage": "Text",
					"header": null,
					"cookie": [],
					"body": null
				}
			]
		},
		{
			"name": "Organization List Test",
			"event": [
				{
					"listen": "test",
					"script": {
						"exec": [
							"pm.test(\"Org List Test\", function () {",
							"    pm.response.to.have.status(200);",
							"    pm.response.to.be.ok;",
							"    pm.response.to.be.json;",
							"});",
							"",
							"pm.test(\"Org List JSON Test\", function () {",
							"    const responseJson = pm.response.json();",
							"    pm.expect(responseJson.limit).to.eql(10);",
							"    pm.expect(responseJson.offset).to.eql(0);",
							"    pm.expect(responseJson.results).to.have.lengthOf(10);",
							"});",
							"",
							"pm.test(\"Org List Result Test\", function () {",
							"    const responseJson = pm.response.json().results[0];",
							"    pm.expect(responseJson.cycle).to.be.a('number');",
							"    pm.expect(responseJson.dems).to.be.a('number');",
							"    pm.expect(responseJson.repubs).to.be.a('number');",
							"    pm.expect(responseJson.orgid).to.be.a('string');",
							"    pm.expect(responseJson.orgname).to.be.a('string');",
							"});"
						],
						"type": "text/javascript"
					}
				}
			],
			"request": {
				"method": "GET",
				"header": [],
				"url": {
					"raw": "https://api.politicsin.review/organizations/?offset=0&limit=10",
					"protocol": "https",
					"host": [
						"api",
						"politicsin",
						"review"
					],
					"path": [
						"organizations",
						""
					],
					"query": [
						{
							"key": "offset",
							"value": "0"
						},
						{
							"key": "limit",
							"value": "10"
						}
					]
				}
			},
			"response": []
		},
		{
			"name": "Politicians List Filter",
			"event": [
				{
					"listen": "test",
					"script": {
						"exec": [
							""
						],
						"type": "text/javascript"
					}
				}
			],
			"request": {
				"auth": {
					"type": "noauth"
				},
				"method": "GET",
				"header": [
					{
						"key": "",
						"value": "",
						"type": "text",
						"disabled": true
					}
				],
				"url": {
					"raw": "https://api.politicsin.review/politicians/?name=<name>&state=<state>&party=[D|R]",
					"protocol": "https",
					"host": [
						"api",
						"politicsin",
						"review"
					],
					"path": [
						"politicians",
						""
					],
					"query": [
						{
							"key": "name",
							"value": "<name>",
							"description": "Search for politicians by their name."
						},
						{
							"key": "state",
							"value": "<state>",
							"description": "The state the politician hails from."
						},
						{
							"key": "party",
							"value": "[D|R]",
							"description": "The party the politician represents."
						}
					]
				}
			},
			"response": [
				{
					"name": "Politicians List Filter Example",
					"originalRequest": {
						"method": "GET",
						"header": [],
						"url": {
							"raw": "https://api.politicsin.review/politicians/?name=Diane&state=CA&party=D",
							"protocol": "https",
							"host": [
								"api",
								"politicsin",
								"review"
							],
							"path": [
								"politicians",
								""
							],
							"query": [
								{
									"key": "name",
									"value": "Diane"
								},
								{
									"key": "state",
									"value": "CA"
								},
								{
									"key": "party",
									"value": "D"
								}
							]
						}
					},
					"_postman_previewlanguage": "Text",
					"header": null,
					"cookie": [],
					"body": null
				}
			]
		},
		{
			"name": "Bills List Filter",
			"request": {
				"method": "GET",
				"header": [],
				"url": {
					"raw": "https://api.politicsin.review/bills/?title=<title>&subject=<subject>&sponsor=<sponsor>",
					"protocol": "https",
					"host": [
						"api",
						"politicsin",
						"review"
					],
					"path": [
						"bills",
						""
					],
					"query": [
						{
							"key": "title",
							"value": "<title>",
							"description": "Title of the bill."
						},
						{
							"key": "subject",
							"value": "<subject>",
							"description": "Subject of the bill."
						},
						{
							"key": "sponsor",
							"value": "<sponsor>",
							"description": "Name of the sponsor of the bill. "
						}
					]
				}
			},
			"response": [
				{
					"name": "Bills List Filter Example",
					"originalRequest": {
						"method": "GET",
						"header": [],
						"url": {
							"raw": "https://api.politicsin.review/bills/?title=Establishing the Joint Select Committee&subject=Taxation&sponsor=Honda",
							"protocol": "https",
							"host": [
								"api",
								"politicsin",
								"review"
							],
							"path": [
								"bills",
								""
							],
							"query": [
								{
									"key": "title",
									"value": "Establishing the Joint Select Committee"
								},
								{
									"key": "subject",
									"value": "Taxation"
								},
								{
									"key": "sponsor",
									"value": "Honda"
								}
							]
						}
					},
					"_postman_previewlanguage": "Text",
					"header": null,
					"cookie": [],
					"body": null
				}
			]
		},
		{
			"name": "Organization List Filter",
			"request": {
				"method": "GET",
				"header": [],
				"url": {
					"raw": "https://api.politicsin.review/organizations/?mindem=<mindem>&maxdem=<maxdem>&minrepub=<minrepub>&maxrepub=<maxrepub>&orgname=<orgname>",
					"protocol": "https",
					"host": [
						"api",
						"politicsin",
						"review"
					],
					"path": [
						"organizations",
						""
					],
					"query": [
						{
							"key": "mindem",
							"value": "<mindem>",
							"description": "Minimum funding to Democrats."
						},
						{
							"key": "maxdem",
							"value": "<maxdem>",
							"description": "Maximum funding to Democrats. "
						},
						{
							"key": "minrepub",
							"value": "<minrepub>",
							"description": "Minimum funding to Republicans."
						},
						{
							"key": "maxrepub",
							"value": "<maxrepub>",
							"description": "Maximum funding to Republicans."
						},
						{
							"key": "orgname",
							"value": "<orgname>",
							"description": "Name of the organization."
						}
					]
				}
			},
			"response": [
				{
					"name": "Organization List Filter Example",
					"originalRequest": {
						"method": "GET",
						"header": [],
						"url": {
							"raw": "https://api.politicsin.review/organizations/?mindem=0&maxdem=1000&minrepub=0&maxrepub=2000&orgname=Facebook",
							"protocol": "https",
							"host": [
								"api",
								"politicsin",
								"review"
							],
							"path": [
								"organizations",
								""
							],
							"query": [
								{
									"key": "mindem",
									"value": "0"
								},
								{
									"key": "maxdem",
									"value": "1000"
								},
								{
									"key": "minrepub",
									"value": "0"
								},
								{
									"key": "maxrepub",
									"value": "2000"
								},
								{
									"key": "orgname",
									"value": "Facebook"
								}
							]
						}
					},
					"_postman_previewlanguage": "Text",
					"header": null,
					"cookie": [],
					"body": null
				}
			]
		},
		{
			"name": "Specific Politician",
			"request": {
				"auth": {
					"type": "noauth"
				},
				"method": "GET",
				"header": [
					{
						"key": "",
						"value": "",
						"type": "text",
						"disabled": true
					}
				],
				"url": {
					"raw": "https://api.politicsin.review/politicians/<politician_id>/",
					"protocol": "https",
					"host": [
						"api",
						"politicsin",
						"review"
					],
					"path": [
						"politicians",
						"<politician_id>",
						""
					],
					"query": [
						{
							"key": "order",
							"value": "",
							"disabled": true
						},
						{
							"key": "",
							"value": "",
							"disabled": true
						}
					]
				}
			},
			"response": [
				{
					"name": "Specific Politician Example",
					"originalRequest": {
						"method": "GET",
						"header": [],
						"url": {
							"raw": "https://api.politicsin.review/politicians/B001230/",
							"protocol": "https",
							"host": [
								"api",
								"politicsin",
								"review"
							],
							"path": [
								"politicians",
								"B001230",
								""
							]
						}
					},
					"_postman_previewlanguage": "Text",
					"header": null,
					"cookie": [],
					"body": null
				}
			]
		},
		{
			"name": "Specific Politician Test",
			"event": [
				{
					"listen": "test",
					"script": {
						"exec": [
							"pm.test(\"Politician Test\", function () {",
							"    pm.response.to.have.status(200);",
							"    pm.response.to.be.ok;",
							"    pm.response.to.be.json;",
							"});",
							"",
							"pm.test(\"Politician Result Test\", function () {",
							"    const responseJson = pm.response.json();",
							"    pm.expect(responseJson.first_name).to.be.a('string');",
							"    pm.expect(responseJson.id).to.be.a('string');",
							"    pm.expect(responseJson.last_name).to.be.a('string');",
							"    pm.expect(responseJson.party).to.be.a('string');",
							"    pm.expect(responseJson.state).to.be.a('string');",
							"});"
						],
						"type": "text/javascript"
					}
				}
			],
			"request": {
				"auth": {
					"type": "noauth"
				},
				"method": "GET",
				"header": [
					{
						"key": "",
						"value": "",
						"type": "text",
						"disabled": true
					}
				],
				"url": {
					"raw": "https://api.politicsin.review/politicians/S000510",
					"protocol": "https",
					"host": [
						"api",
						"politicsin",
						"review"
					],
					"path": [
						"politicians",
						"S000510"
					],
					"query": [
						{
							"key": "order",
							"value": "",
							"disabled": true
						},
						{
							"key": "",
							"value": "",
							"disabled": true
						}
					]
				}
			},
			"response": []
		},
		{
			"name": "Specific Organization",
			"request": {
				"method": "GET",
				"header": [],
				"url": {
					"raw": "https://api.politicsin.review/organizations/<org_id>/",
					"protocol": "https",
					"host": [
						"api",
						"politicsin",
						"review"
					],
					"path": [
						"organizations",
						"<org_id>",
						""
					]
				}
			},
			"response": [
				{
					"name": "Specific Organization Example",
					"originalRequest": {
						"method": "GET",
						"header": [],
						"url": {
							"raw": "https://api.politicsin.review/organizations/D000033563",
							"protocol": "https",
							"host": [
								"api",
								"politicsin",
								"review"
							],
							"path": [
								"organizations",
								"D000033563"
							]
						}
					},
					"_postman_previewlanguage": "Text",
					"header": null,
					"cookie": [],
					"body": null
				}
			]
		},
		{
			"name": "Specific Organization Test",
			"event": [
				{
					"listen": "test",
					"script": {
						"exec": [
							"pm.test(\"Org Test\", function () {",
							"    pm.response.to.have.status(200);",
							"    pm.response.to.be.ok;",
							"    pm.response.to.be.json;",
							"});",
							"",
							"pm.test(\"Org Result Test\", function () {",
							"    const responseJson = pm.response.json();",
							"    pm.expect(responseJson.cycle).to.be.a('number');",
							"    pm.expect(responseJson.dems).to.be.a('number');",
							"    pm.expect(responseJson.repubs).to.be.a('number');",
							"    pm.expect(responseJson.orgid).to.be.a('string');",
							"    pm.expect(responseJson.orgname).to.be.a('string');",
							"});"
						],
						"type": "text/javascript"
					}
				}
			],
			"request": {
				"method": "GET",
				"header": [],
				"url": {
					"raw": "https://api.politicsin.review/organizations/D000000162",
					"protocol": "https",
					"host": [
						"api",
						"politicsin",
						"review"
					],
					"path": [
						"organizations",
						"D000000162"
					]
				}
			},
			"response": []
		},
		{
			"name": "Specific Bill",
			"request": {
				"method": "GET",
				"header": [],
				"url": {
					"raw": "https://api.politicsin.review/bills/<bill_id>/",
					"protocol": "https",
					"host": [
						"api",
						"politicsin",
						"review"
					],
					"path": [
						"bills",
						"<bill_id>",
						""
					]
				}
			},
			"response": [
				{
					"name": "Specific Bill Example",
					"originalRequest": {
						"method": "GET",
						"header": [],
						"url": {
							"raw": "https://api.politicsin.review/bills/hr3684-117/",
							"protocol": "https",
							"host": [
								"api",
								"politicsin",
								"review"
							],
							"path": [
								"bills",
								"hr3684-117",
								""
							]
						}
					},
					"_postman_previewlanguage": "Text",
					"header": null,
					"cookie": [],
					"body": null
				}
			]
		},
		{
			"name": "Specific Bill Test",
			"event": [
				{
					"listen": "test",
					"script": {
						"exec": [
							"pm.test(\"Bill List Test\", function () {",
							"    pm.response.to.have.status(200);",
							"    pm.response.to.be.ok;",
							"    pm.response.to.be.json;",
							"});",
							"",
							"pm.test(\"Bill List Result Test\", function () {",
							"    const responseJson = pm.response.json();",
							"    pm.expect(responseJson.bill_id).to.be.a('string');",
							"    pm.expect(responseJson.congressdotgov_url).to.be.a('string');",
							"    pm.expect(responseJson.sponsor_id).to.be.a('string');",
							"    pm.expect(responseJson.title).to.be.a('string');",
							"    pm.expect(responseJson.latest_major_action).to.be.a('string');",
							"});"
						],
						"type": "text/javascript"
					}
				}
			],
			"request": {
				"method": "GET",
				"header": [],
				"url": {
					"raw": "https://api.politicsin.review/bills/hconres34-117",
					"protocol": "https",
					"host": [
						"api",
						"politicsin",
						"review"
					],
					"path": [
						"bills",
						"hconres34-117"
					]
				}
			},
			"response": []
		}
	],
	"event": [
		{
			"listen": "prerequest",
			"script": {
				"type": "text/javascript",
				"exec": [
					""
				]
			}
		},
		{
			"listen": "test",
			"script": {
				"type": "text/javascript",
				"exec": [
					""
				]
			}
		}
	],
	"variable": [
		{
			"key": "party",
			"value": "\"\""
		},
		{
			"key": "name",
			"value": "\"\""
		},
		{
			"key": "state",
			"value": "\"\""
		},
		{
			"key": "num_laws_introduced",
			"value": "0"
		},
		{
			"key": "ProPublicaKey",
			"value": "lx2ykkTG1DqbJtSrRKFnQq5ayXW5a6kqLfgjVhRf"
		},
		{
			"key": "pagenumber",
			"value": "1"
		},
		{
			"key": "pagesize",
			"value": "50"
		},
		{
			"key": "politician_id",
			"value": "1"
		},
		{
			"key": "committee",
			"value": "\"\""
		},
		{
			"key": "laws_introduced",
			"value": "\"\""
		},
		{
			"key": "date_introduced",
			"value": "1950"
		},
		{
			"key": "money_dem",
			"value": "10000"
		},
		{
			"key": "money_repub",
			"value": "10000"
		},
		{
			"key": "money_last_cycle",
			"value": "5000"
		},
		{
			"key": "last_cycle",
			"value": "\"\""
		},
		{
			"key": "bill_id",
			"value": "1"
		},
		{
			"key": "organization_id",
			"value": "1"
		},
		{
			"key": "sector",
			"value": "\"\""
		},
		{
			"key": "revenue",
			"value": "10000"
		},
		{
			"key": "profit",
			"value": "10000"
		},
		{
			"key": "registration_date",
			"value": "1950"
		},
		{
			"key": "pageoffset",
			"value": "pageoffset"
		}
	]
}